<?xml version="1.0" encoding="UTF-8"?>
<svg width="100px" height="78px" viewBox="0 0 100 78" version="1.1" xmlns="http://www.w3.org/2000/svg" xmlns:xlink="http://www.w3.org/1999/xlink">
    <!-- Generator: Sketch 52.2 (67145) - http://www.bohemiancoding.com/sketch -->
    <title>Group 21</title>
    <desc>Created with Sketch.</desc>
    <g id="Page-1" stroke="none" stroke-width="1" fill="none" fill-rule="evenodd">
        <g id="press-page-v1" transform="translate(-747.000000, -3440.000000)">
            <g id="Group-21" transform="translate(748.000000, 3441.000000)">
                <path d="M44.6396,28 L93.3606,28 C95.9226,28 97.9996,30.067 97.9996,32.618 L97.9996,63.794 C97.9996,66.345 95.9226,68.413 93.3606,68.413 L86.7726,68.413 L79.1506,76 L71.5276,68.413 L44.6396,68.413 C42.0766,68.413 39.9996,66.345 39.9996,63.794 L39.9996,32.618 C39.9996,30.067 42.0766,28 44.6396,28" id="Fill-1" fill="#FFFFFF"></path>
                <path d="M44.6396,28 L93.3606,28 C95.9226,28 97.9996,30.067 97.9996,32.618 L97.9996,63.794 C97.9996,66.345 95.9226,68.413 93.3606,68.413 L86.7726,68.413 L79.1506,76 L71.5276,68.413 L44.6396,68.413 C42.0766,68.413 39.9996,66.345 39.9996,63.794 L39.9996,32.618 C39.9996,30.067 42.0766,28 44.6396,28 Z" id="Stroke-3" stroke="#333333" stroke-width="2" stroke-linecap="round" stroke-linejoin="round"></path>
                <path d="M89,58 L49,58" id="Stroke-5" stroke="#FC6D26" stroke-width="2" stroke-linecap="round" stroke-linejoin="round"></path>
                <path d="M89,47 L55,47" id="Stroke-7" stroke="#CCCCCC" stroke-width="2" stroke-linecap="round" stroke-linejoin="round"></path>
                <path d="M88,37 L76,37" id="Stroke-9" stroke="#CCCCCC" stroke-width="2" stroke-linecap="round" stroke-linejoin="round"></path>
                <path d="M53.3604,0 L4.6394,0 C2.0774,0 0.0004,2.067 0.0004,4.618 L0.0004,35.794 C0.0004,38.345 2.0774,40.413 4.6394,40.413 L11.2274,40.413 L18.8494,48 L26.4724,40.413 L53.3604,40.413 C55.9234,40.413 58.0004,38.345 58.0004,35.794 L58.0004,4.618 C58.0004,2.067 55.9234,0 53.3604,0" id="Fill-11" fill="#FFFFFF"></path>
                <path d="M53.3604,0 L4.6394,0 C2.0774,0 0.0004,2.067 0.0004,4.618 L0.0004,35.794 C0.0004,38.345 2.0774,40.413 4.6394,40.413 L11.2274,40.413 L18.8494,48 L26.4724,40.413 L53.3604,40.413 C55.9234,40.413 58.0004,38.345 58.0004,35.794 L58.0004,4.618 C58.0004,2.067 55.9234,0 53.3604,0 Z" id="Stroke-13" stroke="#333333" stroke-width="2" stroke-linecap="round" stroke-linejoin="round"></path>
                <path d="M9,9 L49,9" id="Stroke-15" stroke="#FCA326" stroke-width="2" stroke-linecap="round" stroke-linejoin="round"></path>
                <path d="M9,20 L43,20" id="Stroke-17" stroke="#CCCCCC" stroke-width="2" stroke-linecap="round" stroke-linejoin="round"></path>
                <path d="M10,30 L22,30" id="Stroke-19" stroke="#CCCCCC" stroke-width="2" stroke-linecap="round" stroke-linejoin="round"></path>
            </g>
        </g>
    </g>
</svg>